// Jest Snapshot v1, https://goo.gl/fbAQLP

exports[`Schedule DayRowButtons renders 1`] = `
<ul
  className="event-schedule-table__button-list"
>
  <li>
    <button
      className="event-schedule-table__remove-link"
      onClick={[Function]}
    >
      Remove
    </button>
  </li>
  <EvalButton
    item={
      Object {
        "id": "123",
        "type": "session",
      }
    }
    returnTo="%2Fmy-conference%2Fschedule%2F%3Fs%3Dundefined"
    shortText={true}
  />
</ul>
`;
