// Jest Snapshot v1, https://goo.gl/fbAQLP

exports[`SupportConsultations renders 1`] = `
<div
  className="support-consultations__home"
>
  <div
    className="support-consultations__scheduled-appointments"
  >
    <h2
      className="secondary-header--alt"
    >
      My Scheduled Appointments
    </h2>
    <div>
      <p>
        Use the create appointment button below to meet with a product expert.
      </p>
      <Link
        className="cmc-article__link"
        replace={false}
        to="/verify-registration"
      >
        Create an Appointment
      </Link>
    </div>
  </div>
  <Connect(ProfileViewContainer) />
</div>
`;

exports[`SupportConsultations renders an appointment 1`] = `
<div
  className="support-consultations__home"
>
  <div
    className="support-consultations__scheduled-appointments"
  >
    <h2
      className="secondary-header--alt"
    >
      My Scheduled Appointments
    </h2>
    <ScheduleDay
      dayItems={
        Array [
          Object {
            "analystId": "5860926299ab5cb274586cf5",
            "availabilityId": "589e04cb3414ba604118d257",
            "end": "2017-03-10T15:22:00.000Z",
            "location": Object {
              "title": "TBD",
            },
            "start": "2017-03-10T15:21:00.000Z",
            "title": "Corrine123 Snoddy / Academics — Support Consultation",
            "type": "support",
          },
        ]
      }
    />
  </div>
  <Connect(ProfileViewContainer) />
</div>
`;
