// Jest Snapshot v1, https://goo.gl/fbAQLP

exports[`PctBrowser PctBrowser.container renders 1`] = `
<div>
  <PctBrowser
    fetchPcts={[Function]}
    fetching={false}
    loadStatus="success"
  />
</div>
`;
