// Jest Snapshot v1, https://goo.gl/fbAQLP

exports[`EasybookedChart renders 1`] = `
<div
  className="easybooked-chart"
>
  <ResponsiveContainer
    debounce={0}
    height="100%"
    width="100%"
  >
    <ComposedDataDecorator(PieChart)
      margin={
        Object {
          "bottom": 0,
          "left": 0,
          "right": 0,
          "top": 0,
        }
      }
      style={Object {}}
    >
      <AnimationDecorator(Pie)
        animationBegin={400}
        animationDuration={1500}
        animationEasing="ease"
        cx="50%"
        cy="50%"
        data={
          Array [
            Object {
              "name": "EasyBooked",
              "value": 2,
            },
            Object {
              "name": "Regular",
              "value": 3,
            },
          ]
        }
        endAngle={360}
        fill="#78A22F"
        innerRadius={0}
        isAnimationActive={true}
        label={true}
        labelLine={true}
        legendType="rect"
        minAngle={0}
        nameKey="name"
        outerRadius="80%"
        paddingAngle={0}
        startAngle={0}
        stroke="#fff"
        valueKey="value"
      >
        <Cell
          fill="#78A22F"
        />
        <Cell
          fill="#00468A"
        />
      </AnimationDecorator(Pie)>
      <Legend
        align="center"
        iconSize={14}
        layout="horizontal"
        verticalAlign="bottom"
      />
      <Tooltip
        active={false}
        animationDuration={400}
        animationEasing="ease"
        coordinate={
          Object {
            "x": 0,
            "y": 0,
          }
        }
        cursor={true}
        cursorStyle={Object {}}
        isAnimationActive={true}
        itemSorter={[Function]}
        itemStyle={Object {}}
        labelStyle={Object {}}
        offset={10}
        separator=" : "
        viewBox={
          Object {
            "x1": 0,
            "x2": 0,
            "y1": 0,
            "y2": 0,
          }
        }
        wrapperStyle={Object {}}
      />
    </ComposedDataDecorator(PieChart)>
  </ResponsiveContainer>
</div>
`;
