// Jest Snapshot v1, https://goo.gl/fbAQLP

exports[`TimeChart renders 1`] = `
<div
  className="topics-chart"
>
  <ResponsiveContainer
    debounce={0}
    height="100%"
    width="100%"
  >
    <AnimationDecorator(RadarChart)
      clockWise={true}
      cx="50%"
      cy="50%"
      data={
        Array [
          Object {
            "A": 1,
            "topic": "topic 1",
          },
          Object {
            "A": 2,
            "topic": "topic 2",
          },
        ]
      }
      height={0}
      innerRadius={0}
      margin={
        Object {
          "bottom": 0,
          "left": 0,
          "right": 0,
          "top": 0,
        }
      }
      outerRadius="80%"
      startAngle={90}
      width={0}
    >
      <Radar
        animationBegin={0}
        animationDuration={1500}
        animationEasing="ease"
        dataKey="A"
        dot={false}
        fill="#78A22F"
        fillOpacity={0.6}
        isAnimationActive={true}
        label={false}
        legendType="rect"
        name="Topic"
        stroke="#78A22F"
      />
      <PolarGrid
        cx={0}
        cy={0}
        gridType="polygon"
        innerRadius={0}
        outerRadius={0}
      />
      <PolarAngleAxis
        axisLine={true}
        cx={0}
        cy={0}
        dataKey="topic"
        hide={false}
        orientation="outer"
        tick={true}
        tickLine={true}
      />
      <PolarRadiusAxis
        allowDataOverflow={false}
        angle={0}
        axisLine={true}
        cx={0}
        cy={0}
        domain={
          Array [
            0,
            "auto",
          ]
        }
        orientation="right"
        scale="auto"
        stroke="#ccc"
        tick={true}
        tickCount={5}
      />
      <Tooltip
        active={false}
        animationDuration={400}
        animationEasing="ease"
        coordinate={
          Object {
            "x": 0,
            "y": 0,
          }
        }
        cursor={true}
        cursorStyle={Object {}}
        isAnimationActive={true}
        itemSorter={[Function]}
        itemStyle={Object {}}
        labelStyle={Object {}}
        offset={10}
        separator=" : "
        viewBox={
          Object {
            "x1": 0,
            "x2": 0,
            "y1": 0,
            "y2": 0,
          }
        }
        wrapperStyle={Object {}}
      />
    </AnimationDecorator(RadarChart)>
  </ResponsiveContainer>
</div>
`;
