// Jest Snapshot v1, https://goo.gl/fbAQLP

exports[`ScheduleReport charts SessionChart renders 1`] = `
<div
  className="session-chart"
>
  <h2
    className="cmc-article__intro-p"
  />
  <ResponsiveContainer
    debounce={0}
    height="100%"
    width="100%"
  >
    <AnimationDecorator(ComposedDataDecorator(BarChart))
      layout="vertical"
      margin={
        Object {
          "bottom": 5,
          "left": 5,
          "right": 5,
          "top": 5,
        }
      }
      stackOffset="none"
    >
      <XAxis
        allowDataOverflow={false}
        allowDecimals={true}
        domain={
          Array [
            0,
            "auto",
          ]
        }
        height={30}
        hide={false}
        mirror={false}
        orientation="bottom"
        padding={
          Object {
            "left": 0,
            "right": 0,
          }
        }
        reversed={false}
        scale="auto"
        tickCount={5}
        type="number"
        width={0}
        xAxisId={0}
      />
      <YAxis
        allowDataOverflow={false}
        allowDecimals={true}
        dataKey="name"
        domain={
          Array [
            0,
            "auto",
          ]
        }
        height={0}
        hide={false}
        interval={0}
        mirror={false}
        orientation="left"
        padding={
          Object {
            "bottom": 0,
            "top": 0,
          }
        }
        reversed={false}
        scale="auto"
        tick={
          Object {
            "fontSize": "10px",
          }
        }
        tickCount={5}
        type="category"
        width={325}
        yAxisId={0}
      />
      <CartesianGrid
        fill="none"
        height={0}
        horizontal={true}
        horizontalPoints={Array []}
        stroke="#ccc"
        strokeDasharray="3 3"
        vertical={true}
        verticalPoints={Array []}
        width={0}
        x={0}
        y={0}
      />
      <Tooltip
        active={false}
        animationDuration={400}
        animationEasing="ease"
        coordinate={
          Object {
            "x": 0,
            "y": 0,
          }
        }
        cursor={true}
        cursorStyle={Object {}}
        isAnimationActive={true}
        itemSorter={[Function]}
        itemStyle={Object {}}
        labelStyle={Object {}}
        offset={10}
        separator=" : "
        viewBox={
          Object {
            "x1": 0,
            "x2": 0,
            "y1": 0,
            "y2": 0,
          }
        }
        wrapperStyle={Object {}}
      />
      <Bar
        animationBegin={0}
        animationDuration={1500}
        animationEasing="ease"
        data={Array []}
        dataKey="d1"
        fill="#78A22F"
        isAnimationActive={false}
        layout="vertical"
        legendType="rect"
        maxBarSize={30}
        minPointSize={0}
        name="Sign Ups"
        onAnimationEnd={[Function]}
        onAnimationStart={[Function]}
        xAxisId={0}
        yAxisId={0}
      />
    </AnimationDecorator(ComposedDataDecorator(BarChart))>
  </ResponsiveContainer>
</div>
`;
