// Jest Snapshot v1, https://goo.gl/fbAQLP

exports[`SupportConsultations charts TopicChart.container renders 1`] = `
<TopicChart
  className="session-topic-chart"
  data={
    Array [
      Object {
        "d1": 2,
        "topic": undefined,
      },
      Object {
        "d1": 1,
        "topic": undefined,
      },
    ]
  }
  loading={false}
  title="Session Topics"
/>
`;
