// Jest Snapshot v1, https://goo.gl/fbAQLP

exports[`ChooseAnalystTime DayItemsList renders 1`] = `
<ul
  className="support-consultations__select-analyst__day-list"
>
  <li
    className="support-consultations__select-analyst__day-list-item"
  >
    Friday 10:21 AM
    <ConflictWarning
      conflicts={Array []}
      time="2017-03-10T15:21:00.000Z"
    />
    <button
      className="support-consultations__select-analyst__select-slot-button"
      onClick={[Function]}
      type="button"
    >
      Select
    </button>
  </li>
  <li
    className="support-consultations__select-analyst__day-list-item"
  >
    Friday 9:00 AM
    <ConflictWarning
      conflicts={Array []}
      time="2017-04-28T13:00:00.000Z"
    />
    <button
      className="support-consultations__select-analyst__select-slot-button"
      onClick={[Function]}
      type="button"
    >
      Select
    </button>
  </li>
  <li
    className="support-consultations__select-analyst__day-list-item"
  >
    Friday 9:30 AM
    <ConflictWarning
      conflicts={Array []}
      time="2017-04-28T13:30:00.000Z"
    />
    <button
      className="support-consultations__select-analyst__select-slot-button"
      onClick={[Function]}
      type="button"
    >
      Select
    </button>
  </li>
</ul>
`;
