// Jest Snapshot v1, https://goo.gl/fbAQLP

exports[`PassportReport PassportRegistration container renders 1`] = `
<VerifyRegistration
  handleSubmit={[Function]}
  handleSubmitSuccess={[Function]}
/>
`;
