// Jest Snapshot v1, https://goo.gl/fbAQLP

exports[`PassportReport charts SponsorChart renders 1`] = `
<div
  className="passport-report-item__provider-data"
>
  <div
    className="passport-report-item__profile__title secondary-header--alt"
  >
    Provider Data
  </div>
  <dl>
    <dt>
      foo
    </dt>
    <dd>
      bar
    </dd>
    <dt>
      photoURL
    </dt>
    <dd>
      url
    </dd>
    <div>
      <dt>
        Photo
      </dt>
      <dd>
        <img
          alt=""
          className="passport-report-item__provider-data-photo"
          src="url"
        />
      </dd>
    </div>
  </dl>
</div>
`;

exports[`PassportReport charts SponsorChart renders message when no data provided 1`] = `
<div
  className="passport-report-item__provider-data"
>
  <div
    className="passport-report-item__title secondary-header--alt"
  >
    Provider Data
  </div>
  <p>
    No provider data set. User has not connected since the beginning of providerData collection. Find user email in firebase.
  </p>
</div>
`;
