// Jest Snapshot v1, https://goo.gl/fbAQLP

exports[`PassportReport charts SponsorChart renders 1`] = `
<div>
  <p
    className="cmc-article__intro-p"
  >
    Completion by Sponsor
  </p>
  <div
    className="sponsor-chart"
  >
    <ComposedDataDecorator(PieChart)
      height={250}
      margin={
        Object {
          "bottom": 0,
          "left": 0,
          "right": 0,
          "top": 0,
        }
      }
      style={Object {}}
      width={400}
    >
      <AnimationDecorator(Pie)
        animationBegin={400}
        animationDuration={1500}
        animationEasing="ease"
        cx={150}
        cy="50%"
        data={Array []}
        endAngle={360}
        fill="#808080"
        innerRadius={0}
        isAnimationActive={true}
        label={true}
        labelLine={true}
        legendType="rect"
        minAngle={0}
        nameKey="name"
        outerRadius="80%"
        paddingAngle={0}
        startAngle={0}
        stroke="#fff"
        valueKey="value"
      />
      <Legend
        align="right"
        iconSize={14}
        layout="vertical"
        verticalAlign="bottom"
      />
      <Tooltip
        active={false}
        animationDuration={400}
        animationEasing="ease"
        coordinate={
          Object {
            "x": 0,
            "y": 0,
          }
        }
        cursor={true}
        cursorStyle={Object {}}
        isAnimationActive={true}
        itemSorter={[Function]}
        itemStyle={Object {}}
        labelStyle={Object {}}
        offset={10}
        separator=" : "
        viewBox={
          Object {
            "x1": 0,
            "x2": 0,
            "y1": 0,
            "y2": 0,
          }
        }
        wrapperStyle={Object {}}
      />
    </ComposedDataDecorator(PieChart)>
  </div>
</div>
`;
