// Jest Snapshot v1, https://goo.gl/fbAQLP

exports[`SessionBrowser ScheduleButton renders 1`] = `
<button
  className="session-browser__session-add-link"
  onClick={[Function]}
>
  Remove from Schedule
</button>
`;
