// Jest Snapshot v1, https://goo.gl/fbAQLP

exports[`SessionBrowser SessionRow renders 1`] = `
<li
  className="session-browser__session"
>
  <h3
    className="session-browser__session-title"
  >
    New Offerings from Integration Services
  </h3>
  <div
    className="session-browser__more-info-wrapper"
  >
    <button
      className="session-browser__session-details-button"
      onClick={[Function]}
      type="button"
    >
      Details
    </button>
  </div>
  <div
    className="session-browser__start-time"
  >
    <span
      className="session-browser__label"
    >
      Time
    </span>
    5:00 pm
     
    - 
    5:45 pm
  </div>
  <div
    className="session-browser__location"
  >
    <span
      className="session-browser__label"
    >
      Location
    </span>
  </div>
  <div
    className="session-browser__user-type"
  >
    <span
      className="session-browser__label"
    >
      Type of User
    </span>
    Functional, Technical, Executive
  </div>
  <div
    className="session-browser__user-level"
  >
    <span
      className="session-browser__label"
    >
      Level of Expertise
    </span>
    Beginner, Intermediate, Expert
  </div>
  <div
    className="session-browser__session-details"
  >
    <div
      className="session-browser__description"
    >
      <span
        className="session-browser__label"
      >
        Description
      </span>
      <span
        dangerouslySetInnerHTML={
          Object {
            "__html": "The Integrations Services ...",
          }
        }
      />
    </div>
    <div
      className="session-browser__presenters"
    >
      <span
        className="session-browser__label"
      >
        Presenters
      </span>
      <ul
        className="session-browser__presenter-list"
      />
    </div>
    <ul
      className="session-browser__session-links"
    >
      <Connect(EvalButtonContainer)
        item={
          Object {
            "_id": "5830d8cb3aa27a048063d276",
            "active": true,
            "attendance": 22,
            "createdAt": "2016-11-19T22:57:15.849Z",
            "description": "The Integrations Services ...",
            "end": "2017-04-28T21:45:00.000Z",
            "id": "5830d8cb3aa27a048063d276",
            "presenter": Array [],
            "savingStatus": "",
            "start": "2017-04-28T21:00:00.000Z",
            "status": "Approved",
            "title": "New Offerings from Integration Services",
            "track": Array [
              Object {
                "_id": "5830d4d93aa27a048063d248",
                "createdAt": "2016-11-19T22:40:25.681Z",
                "id": "5830d4d93aa27a048063d248",
                "title": "Driving Excellence through Professional Services",
                "updatedAt": "2016-11-19T22:40:25.681Z",
              },
            ],
            "updatedAt": "2017-03-21T04:00:29.430Z",
            "userLevel": Array [
              "Beginner",
              "Intermediate",
              "Expert",
            ],
            "userType": Array [
              "Functional",
              "Technical",
              "Executive",
            ],
          }
        }
        returnTo="%2Fsessions%2F%23%2Fcurrent%20track%2F5830d8cb3aa27a048063d276%2F"
      />
      <li>
        <Connect(ScheduleButtonContainer)
          item={
            Object {
              "_id": "5830d8cb3aa27a048063d276",
              "active": true,
              "attendance": 22,
              "createdAt": "2016-11-19T22:57:15.849Z",
              "description": "The Integrations Services ...",
              "end": "2017-04-28T21:45:00.000Z",
              "id": "5830d8cb3aa27a048063d276",
              "presenter": Array [],
              "savingStatus": "",
              "start": "2017-04-28T21:00:00.000Z",
              "status": "Approved",
              "title": "New Offerings from Integration Services",
              "track": Array [
                Object {
                  "_id": "5830d4d93aa27a048063d248",
                  "createdAt": "2016-11-19T22:40:25.681Z",
                  "id": "5830d4d93aa27a048063d248",
                  "title": "Driving Excellence through Professional Services",
                  "updatedAt": "2016-11-19T22:40:25.681Z",
                },
              ],
              "updatedAt": "2017-03-21T04:00:29.430Z",
              "userLevel": Array [
                "Beginner",
                "Intermediate",
                "Expert",
              ],
              "userType": Array [
                "Functional",
                "Technical",
                "Executive",
              ],
            }
          }
        />
      </li>
    </ul>
  </div>
</li>
`;
