<?xml version="1.0" encoding="utf-8"?>
<!-- Generator: Adobe Illustrator 16.0.4, SVG Export Plug-In . SVG Version: 6.00 Build 0)  -->
<!DOCTYPE svg PUBLIC "-//W3C//DTD SVG 1.1//EN" "http://www.w3.org/Graphics/SVG/1.1/DTD/svg11.dtd">
<svg version="1.1" id="Layer_1" xmlns="http://www.w3.org/2000/svg" xmlns:xlink="http://www.w3.org/1999/xlink" x="0px" y="0px"
	 width="6.4px" height="9.7px" viewBox="0 0 6.4 9.7" style="enable-background:new 0 0 6.4 9.7;" xml:space="preserve">
<style type="text/css">
<![CDATA[
	.chevronLeftGrey-st0{fill:#676767;}
]]>
</style>
<polygon class="chevronLeftGrey-st0" points="0,4.8 4.8,0 6.4,1.5 3.1,4.8 6.4,8.1 4.8,9.7 "/>
</svg>
