<?xml version="1.0" encoding="utf-8"?>
<!-- Generator: Adobe Illustrator 16.0.4, SVG Export Plug-In . SVG Version: 6.00 Build 0)  -->
<!DOCTYPE svg PUBLIC "-//W3C//DTD SVG 1.1//EN" "http://www.w3.org/Graphics/SVG/1.1/DTD/svg11.dtd">
<svg version="1.1" id="Layer_1" xmlns="http://www.w3.org/2000/svg" xmlns:xlink="http://www.w3.org/1999/xlink" x="0px" y="0px"
	 width="9.7px" height="6.4px" viewBox="0 0 9.7 6.4" style="enable-background:new 0 0 9.7 6.4;" xml:space="preserve">
<style type="text/css">
<![CDATA[
	.chevronDownWhite-st0{fill:#FFFFFF;}
]]>
</style>
<polygon class="chevronDownWhite-st0" points="4.8,6.4 0,1.5 1.5,0 4.8,3.3 8.1,0 9.7,1.5 "/>
</svg>
