<?xml version="1.0" encoding="utf-8"?>
<!-- Generator: Adobe Illustrator 16.0.4, SVG Export Plug-In . SVG Version: 6.00 Build 0)  -->
<!DOCTYPE svg PUBLIC "-//W3C//DTD SVG 1.1//EN" "http://www.w3.org/Graphics/SVG/1.1/DTD/svg11.dtd">
<svg version="1.1" id="Layer_1" xmlns="http://www.w3.org/2000/svg" xmlns:xlink="http://www.w3.org/1999/xlink" x="0px" y="0px"
	 width="18px" height="18px" viewBox="0 0 18 18" style="enable-background:new 0 0 18 18;" xml:space="preserve">
<style type="text/css">
<![CDATA[
	.navIconHover-st0{fill:#FFFFFF;}
	.navIconHover-st1{fill:#676767;}
]]>
</style>
<circle class="navIconHover-st0" cx="9" cy="9" r="9"/>
<polygon class="navIconHover-st1" points="13.2,8.7 8.3,13.5 6.8,12 10.1,8.7 6.8,5.4 8.3,3.8 "/>
</svg>
