<?xml version="1.0" encoding="utf-8"?>
<!-- Generator: Adobe Illustrator 16.0.4, SVG Export Plug-In . SVG Version: 6.00 Build 0)  -->
<!DOCTYPE svg PUBLIC "-//W3C//DTD SVG 1.1//EN" "http://www.w3.org/Graphics/SVG/1.1/DTD/svg11.dtd">
<svg version="1.1" id="Layer_1" xmlns="http://www.w3.org/2000/svg" xmlns:xlink="http://www.w3.org/1999/xlink" x="0px" y="0px"
	 width="35px" height="35px" viewBox="0 0 35 35" enable-background="new 0 0 35 35" xml:space="preserve">
<g>
	<g>
		<rect x="9.92" y="13.711" fill="#FFFFFF" width="3.369" height="11.789"/>
		<path fill="#FFFFFF" d="M21.289,13.711c-2.35,0-2.756,0.856-2.947,1.684v-1.684h-3.369V25.5h3.369v-6.736
			c0-1.093,0.592-1.685,1.684-1.685c1.066,0,1.686,0.579,1.686,1.685V25.5h3.367v-5.895C25.078,16.237,24.639,13.711,21.289,13.711z
			"/>
		<circle fill="#FFFFFF" cx="11.606" cy="11.184" r="1.684"/>
	</g>
</g>
</svg>
