<?xml version="1.0" encoding="utf-8"?>
<!-- Generator: Adobe Illustrator 16.0.4, SVG Export Plug-In . SVG Version: 6.00 Build 0)  -->
<!DOCTYPE svg PUBLIC "-//W3C//DTD SVG 1.1//EN" "http://www.w3.org/Graphics/SVG/1.1/DTD/svg11.dtd">
<svg version="1.1" id="Layer_1" xmlns="http://www.w3.org/2000/svg" xmlns:xlink="http://www.w3.org/1999/xlink" x="0px" y="0px"
	 width="144px" height="144px" viewBox="0 0 144 144" enable-background="new 0 0 144 144" xml:space="preserve">
<path fill-rule="evenodd" clip-rule="evenodd" fill="#FFFFFF" d="M25.857,61.593c2.652,0.79,4.594,3.252,4.594,6.152v37.476
	c0,3.533-2.883,6.417-6.417,6.417h-2.841c-9.917,0-18.026-8.107-18.026-18.024V74.811c0-6.268,4.33-11.568,10.146-13.062
	c1.216-14.206,6.199-28.098,16.09-38.627C40.502,11.306,55.437,6.12,71.446,6.12c16.01,0,30.945,5.185,42.043,17
	c9.837,10.472,14.817,24.268,16.069,38.392c6.376,1.061,11.273,6.632,11.273,13.299v18.803c0,9.06-6.765,16.609-15.495,17.848
	c-1.602,0.226-4.042,0.253-5.663,0.206c-4.788-0.143-8.085-1.125-13.23,1.217c-6.254,3.089-13.36,5.796-20.308,7.109v1.305
	c0,3.155-2.581,5.737-5.737,5.737H61.953c-3.156,0-5.737-2.582-5.737-5.737v-7.924c0-3.156,2.582-5.737,5.737-5.737h18.445
	c2.927,0,5.359,2.221,5.697,5.062c9.354-1.987,19.729-6.805,27.453-12.263v-32.69c0-2.495,1.437-4.665,3.525-5.726
	c-2.412-25.507-18.441-43.396-45.628-43.396C44.411,18.623,28.408,36.313,25.857,61.593L25.857,61.593z"/>
</svg>
