// Jest Snapshot v1, https://goo.gl/fbAQLP

exports[`EmailSignin LoginSuccess renders 1`] = `
<div
  className="cmc-form cmc-form--centered cmc-form--login"
>
  <Loading>
    Loading...
  </Loading>
</div>
`;
