// Jest Snapshot v1, https://goo.gl/fbAQLP

exports[`EmailSignin ResetPasswordForm renders 1`] = `
<Formsy
  className="cmc-form cmc-form--centered cmc-form--login"
  onChange={[Function]}
  onError={[Function]}
  onInvalid={[Function]}
  onInvalidSubmit={[Function]}
  onSubmit={[Function]}
  onSuccess={[Function]}
  onValid={[Function]}
  onValidSubmit={[Function]}
  preventExternalInvalidation={false}
  validationErrors={null}
>
  <p>
    Log in or sign up with your Email.
  </p>
  <p
    className="signin-error"
  />
  <fieldset>
    <ul>
      <li>
        <MyInput
          name="email"
          required={true}
          title="Email"
          validationError="This is not a valid email"
          validationErrors={Object {}}
          validations="isEmail"
        />
      </li>
      <li>
        <MyInput
          name="password"
          required={true}
          title="Password"
          type="password"
          validationError=""
          validationErrors={Object {}}
        />
      </li>
      <li
        className="cmc-form__submit-row cmc-form__submit-row--login"
      >
        <button
          className="cmc-form__submit-button cmc-form__submit-button--login"
          disabled={true}
          type="submit"
        >
          Login
        </button>
        <button
          className="cmc-form__submit-button cmc-form__create-account-link"
          onClick={[Function]}
          type="button"
        >
          Create Account
        </button>
      </li>
      <li>
        <button
          className="cmc-form__back-link login-form__back-btn"
          type="button"
        >
          Back
        </button>
        <button
          className="cmc-form__forgot-password-link"
          onClick={[Function]}
          type="button"
        >
          Forgot Password
        </button>
      </li>
    </ul>
  </fieldset>
</Formsy>
`;
